…
```r
cdr_final_pca
```

```
## # A tibble: 30,818 x 36
##     cdrp quantity length    MW    AV    IP  flex gravy SSF_Helix SSF_Turn
##    <dbl>    <int>  <int> <dbl> <dbl> <dbl> <dbl> <dbl>     <dbl>    <dbl>
##  1 0.963   714166      6  734. 0.167  6.00 0.702  1.27     0.667      0  
##  2 0.716   254505      6  734. 0.167  6.00 0.702  1.27     0.667      0  
##  3 0.703     6481     10  979. 0.1    4.05 0.723  0.67     0.4        0.2
##  4 0.703     6481     10  979. 0.1    4.05 0.723  0.67     0.4        0.2
##  5 0.703     6481     10  979. 0.1    4.05 0.723  0.67     0.4        0.2
##  6 0.703     6481     10  979. 0.1    4.05 0.723  0.67     0.4        0.2
##  7 0.696    11866     10  979. 0.1    4.05 0.723  0.67     0.4        0.2
##  8 0.696    11866     10  979. 0.1    4.05 0.723  0.67     0.4        0.2
##  9 0.696    11866     10  979. 0.1    4.05 0.723  0.67     0.4        0.2
## 10 0.696    11866     10  979. 0.1    4.05 0.723  0.67     0.4        0.2
## # … with 30,808 more rows, and 26 more variables: SSF_Sheet <dbl>, n_A <int>,
## #   n_C <int>, n_D <int>, n_E <int>, n_F <int>, n_G <int>, n_H <int>,
## #   n_I <int>, n_K <int>, n_L <int>, n_M <int>, n_N <int>, n_P <int>,
## #   n_Q <int>, n_R <int>, n_S <int>, n_T <int>, n_V <int>, n_W <int>,
## #   n_Y <int>, aliphatic <int>, aromatic <int>, neutral <int>, positive <int>,
## #   negative <int>
```
…
```r
cdr_final %>% 
              group_by(file) %>% 
              arrange(-cdrp) %>% 
              slice_head(n = 10) %>% 
              ungroup() %>% 
              select(!c(cdr3, type, file, invalid)) %>% 
              arrange(-cdrp) -> b

b <- select(b, !c(which(apply(b, 2, var)==0)))
b
```

```
## # A tibble: 290 x 36
##     cdrp quantity length    MW    AV    IP  flex gravy SSF_Helix SSF_Turn
##    <dbl>    <int>  <int> <dbl> <dbl> <dbl> <dbl> <dbl>     <dbl>    <dbl>
##  1 0.963   714166      6  734. 0.167  6.00 0.702  1.27     0.667      0  
##  2 0.716   254505      6  734. 0.167  6.00 0.702  1.27     0.667      0  
##  3 0.703     6481     10  979. 0.1    4.05 0.723  0.67     0.4        0.2
##  4 0.703     6481     10  979. 0.1    4.05 0.723  0.67     0.4        0.2
##  5 0.703     6481     10  979. 0.1    4.05 0.723  0.67     0.4        0.2
##  6 0.703     6481     10  979. 0.1    4.05 0.723  0.67     0.4        0.2
##  7 0.696    11866     10  979. 0.1    4.05 0.723  0.67     0.4        0.2
##  8 0.696    11866     10  979. 0.1    4.05 0.723  0.67     0.4        0.2
##  9 0.696    11866     10  979. 0.1    4.05 0.723  0.67     0.4        0.2
## 10 0.696    11866     10  979. 0.1    4.05 0.723  0.67     0.4        0.2
## # … with 280 more rows, and 26 more variables: SSF_Sheet <dbl>, n_A <int>,
## #   n_C <int>, n_D <int>, n_E <int>, n_F <int>, n_G <int>, n_H <int>,
## #   n_I <int>, n_K <int>, n_L <int>, n_M <int>, n_N <int>, n_P <int>,
## #   n_Q <int>, n_R <int>, n_S <int>, n_T <int>, n_V <int>, n_W <int>,
## #   n_Y <int>, aliphatic <int>, aromatic <int>, neutral <int>, positive <int>,
## #   negative <int>
```
…
```
##     Min.  1st Qu.   Median     Mean  3rd Qu.     Max. 
##      1.0      1.0      1.0     10.8      4.0 714166.0
```

```r
cdr %>% 
        filter(quantity >= 100) -> a
a
```

```
## # A tibble: 5,027 x 40
##    cdr3  type   cdrp quantity length    MW    AV    IP  flex gravy SSF_Helix
##    <chr> <fct> <dbl>    <int>  <int> <dbl> <dbl> <dbl> <dbl> <dbl>     <dbl>
##  1 FLVE… final 0.963   714166      6  734. 0.167  6.00 0.702  1.27     0.667
##  2 FLVE… final 0.716   254505      6  734. 0.167  6.00 0.702  1.27     0.667
##  3 DGVA… final 0.703     6481     10  979. 0.1    4.05 0.723  0.67     0.4  
##  4 DGVA… final 0.703     6481     10  979. 0.1    4.05 0.723  0.67     0.4  
##  5 DGVA… final 0.703     6481     10  979. 0.1    4.05 0.723  0.67     0.4  
##  6 DGVA… final 0.703     6481     10  979. 0.1    4.05 0.723  0.67     0.4  
##  7 DGVA… final 0.696    11866     10  979. 0.1    4.05 0.723  0.67     0.4  
##  8 DGVA… final 0.696    11866     10  979. 0.1    4.05 0.723  0.67     0.4  
##  9 DGVA… final 0.696    11866     10  979. 0.1    4.05 0.723  0.67     0.4  
## 10 DGVA… final 0.696    11866     10  979. 0.1    4.05 0.723  0.67     0.4  
## # … with 5,017 more rows, and 29 more variables: SSF_Turn <dbl>,
## #   SSF_Sheet <dbl>, n_A <int>, n_C <int>, n_D <int>, n_E <int>, n_F <int>,
## #   n_G <int>, n_H <int>, n_I <int>, n_K <int>, n_L <int>, n_M <int>,
## #   n_N <int>, n_P <int>, n_Q <int>, n_R <int>, n_S <int>, n_T <int>,
## #   n_V <int>, n_W <int>, n_Y <int>, aliphatic <int>, aromatic <int>,
## #   neutral <int>, positive <int>, negative <int>, invalid <int>, file <chr>
```
…
```r
b %>% 
      group_by(cdr3, type) %>% 
      arrange(-cdrp)
```

```
## # A tibble: 555 x 40
## # Groups:   cdr3, type [193]
##    cdr3  type   cdrp quantity length    MW    AV    IP  flex gravy SSF_Helix
##    <chr> <fct> <dbl>    <int>  <int> <dbl> <dbl> <dbl> <dbl> <dbl>     <dbl>
##  1 FLVE… final 0.963   714166      6  734. 0.167  6.00 0.702  1.27     0.667
##  2 FLVE… final 0.716   254505      6  734. 0.167  6.00 0.702  1.27     0.667
##  3 DGVA… final 0.703     6481     10  979. 0.1    4.05 0.723  0.67     0.4  
##  4 DGVA… final 0.703     6481     10  979. 0.1    4.05 0.723  0.67     0.4  
##  5 DGVA… final 0.703     6481     10  979. 0.1    4.05 0.723  0.67     0.4  
##  6 DGVA… final 0.703     6481     10  979. 0.1    4.05 0.723  0.67     0.4  
##  7 DGVA… final 0.696    11866     10  979. 0.1    4.05 0.723  0.67     0.4  
##  8 DGVA… final 0.696    11866     10  979. 0.1    4.05 0.723  0.67     0.4  
##  9 DGVA… final 0.696    11866     10  979. 0.1    4.05 0.723  0.67     0.4  
## 10 DGVA… final 0.696    11866     10  979. 0.1    4.05 0.723  0.67     0.4  
## # … with 545 more rows, and 29 more variables: SSF_Turn <dbl>, SSF_Sheet <dbl>,
## #   n_A <int>, n_C <int>, n_D <int>, n_E <int>, n_F <int>, n_G <int>,
## #   n_H <int>, n_I <int>, n_K <int>, n_L <int>, n_M <int>, n_N <int>,
## #   n_P <int>, n_Q <int>, n_R <int>, n_S <int>, n_T <int>, n_V <int>,
## #   n_W <int>, n_Y <int>, aliphatic <int>, aromatic <int>, neutral <int>,
## #   positive <int>, negative <int>, invalid <int>, file <chr>
```

```r
b %>% 
      group_by(cdr3, type) %>% 
      select(cdr3, type, cdrp, quantity) %>% 
      arrange(-cdrp, -quantity) %>% 
      slice_head(n = 1) %>% 
      arrange(-cdrp, -quantity) 
```

```
## # A tibble: 193 x 4
## # Groups:   cdr3, type [193]
##    cdr3              type   cdrp quantity
##    <chr>             <fct> <dbl>    <int>
##  1 FLVEVK            final 0.963   714166
##  2 DGVAVAGLDY        final 0.703     6481
##  3 GSHNSWDS          final 0.579   369801
##  4 RGSSSSFDY         final 0.329    92824
##  5 ELVGATYY          final 0.250    88917
##  6 DPTWRMATIGSLGTY   final 0.181   115672
##  7 DDYGPAAFDP        final 0.167    46831
##  8 FIVESK            final 0.152    42538
##  9 DRSYYDSSGYYSD     final 0.108    30233
## 10 GNDYVWGSYIEPNYFDY final 0.106    29756
## # … with 183 more rows
```

```r
b %>% 
      group_by(type, cdr3) %>% 
      summarise(total = n()) %>% 
      arrange(-total)
```

```
## # A tibble: 193 x 3
## # Groups:   type [2]
##    type    cdr3       total
##    <fct>   <chr>      <int>
##  1 initial FIVESK        29
##  2 initial DLGIPDDY      21
##  3 initial EMWGPEY       21
##  4 initial FLVESK        21
##  5 final   DGVAVAGLDY    19
##  6 initial DGVAVAGLDY    19
##  7 final   GRWGSY        15
##  8 initial DLHWGAADY     10
##  9 initial EMWGPDY       10
## 10 initial ETWGPEY       10
## # … with 183 more rows
```

```r
b %>% 
      group_by(cdr3, type) %>% 
      select(cdr3, type, cdrp, quantity) %>% 
      arrange(-cdrp, -quantity) -> c

c %>% filter(type == "initial") %>% slice_head(n = 1)
```

```
## # A tibble: 37 x 4
## # Groups:   cdr3, type [37]
##    cdr3             type       cdrp quantity
##    <chr>            <fct>     <dbl>    <int>
##  1 DGVAVAGLDY       initial 0.0378      2463
##  2 DIAAAGDFDY       initial 0.00298     1001
##  3 DISPVGYWFDP      initial 0.00405     1362
##  4 DLGIPDDY         initial 0.0338     11372
##  5 DLHWGAADY        initial 0.00720     2737
##  6 DLYLGYYYDSSGHSY  initial 0.00333     1119
##  7 DPIVVVPAASNWFDP  initial 0.00513     1726
##  8 DPYDSSGYSELTRFDP initial 0.00802     2699
##  9 DQNY             initial 0.00435     1465
## 10 DRTIVGASFDY      initial 0.0138      4628
## # … with 27 more rows
```
…
```r
b %>%
    group_by(cdr3, type) %>% 
    summarise(
      quantity = sum(quantity),
      reads    = n()) %>% 
    arrange(-quantity, -reads) -> d
  
d
```

```
## # A tibble: 193 x 4
## # Groups:   cdr3 [159]
##    cdr3            type    quantity reads
##    <chr>           <fct>      <int> <int>
##  1 FLVEVK          final    1091572     5
##  2 GSHNSWDS        final     413702     4
##  3 FIVESK          initial   384738    29
##  4 DGVAVAGLDY      final     214584    19
##  5 RGSSSSFDY       final     204747     3
##  6 FIVESK          final     161781     7
##  7 DPTWRMATIGSLGTY final     127813     2
##  8 DLGIPDDY        initial   118382    21
##  9 ELVGATYY        final     100078     4
## 10 EMWGPEY         initial    79364    21
## # … with 183 more rows
```
…
```r
d
```

```
## # A tibble: 193 x 4
## # Groups:   cdr3 [159]
##    cdr3            type    quantity reads
##    <chr>           <fct>      <int> <int>
##  1 FLVEVK          final    1091572     5
##  2 GSHNSWDS        final     413702     4
##  3 FIVESK          initial   384738    29
##  4 DGVAVAGLDY      final     214584    19
##  5 RGSSSSFDY       final     204747     3
##  6 FIVESK          final     161781     7
##  7 DPTWRMATIGSLGTY final     127813     2
##  8 DLGIPDDY        initial   118382    21
##  9 ELVGATYY        final     100078     4
## 10 EMWGPEY         initial    79364    21
## # … with 183 more rows
```
…
