…
```r
cdr %>% 
  filter(rich == "rich") %>% 
  ungroup() %>% 
  select(cdr3:SSF_Sheet & !c("cycle", "time", "expgroup")) -> rich66

rich66
```

```
## # A tibble: 2,985 x 14
##    cdr3     cdrp quantity   fcp   fcq length    MW     AV    IP  flex   gravy
##    <chr>   <dbl>    <int> <dbl> <dbl>  <int> <dbl>  <dbl> <dbl> <dbl>   <dbl>
##  1 DNSW… 5.26e-4      791  385.  396.      8 1059. 0.375   4.05 0.735 -0.862 
##  2 DRIT… 1.75e-2    26378  216.  222.     11 1222. 0.0909  5.84 0.734 -0.136 
##  3 RMVR… 1.35e-4      203  197.  203       9 1108. 0.111   8.75 0.705  0.0667
##  4 GSSW… 1.32e-4      198  193.  198       9 1055. 0.222   6.00 0.784 -1.79  
##  5 DESH… 6.19e-4      930  181.  186      14 1622. 0.214   4.05 0.773 -1.63  
##  6 SEQR… 3.71e-4      557  181.  186.     10 1169. 0.1     4.05 0.8   -1.73  
##  7 ARTF… 1.23e-4      185  180.  185      10 1207. 0.4     8.63 0.705 -0.570 
##  8 VGRN  1.14e-4      171  166.  171       4  444. 0       9.72 0.767 -1.05  
##  9 GEQW… 1.08e-4      163  158.  163      11 1435. 0.273   6.75 0.724 -0.854 
## 10 ENDD… 1.07e-4      161  157.  161       9 1202. 0.333   4.05 0.754 -1.41  
## # … with 2,975 more rows, and 3 more variables: SSF_Helix <dbl>,
## #   SSF_Turn <dbl>, SSF_Sheet <dbl>
```
…
