…
```r
cdr_df %>% group_by(experiment) -> df_cdr_exp

df_cdr_exp %>% summarise(quantiles = quantile(quantity))
```

```
## # A tibble: 30 x 2
## # Groups:   experiment [6]
##    experiment quantiles
##    <chr>          <dbl>
##  1 rafael_R0          1
##  2 rafael_R0          1
##  3 rafael_R0          1
##  4 rafael_R0          2
##  5 rafael_R0       5294
##  6 rafael_R4          1
##  7 rafael_R4          1
##  8 rafael_R4          1
##  9 rafael_R4          2
## 10 rafael_R4       3036
## # … with 20 more rows
```
…
```r
cdr_df %>%
          group_by(experiment) %>% 
          select(cdr3:quantity)
```

```
## # A tibble: 75,459 x 6
## # Groups:   experiment [6]
##    cdr3          cycle expgroup       experiment         cdrp quantity
##    <chr>         <chr> <chr>          <chr>             <dbl>    <int>
##  1 A             R0    rafael         rafael_R0     0.0000445        2
##  2 A             R0    renato_acid    renato_ac_R0  0.0000937        6
##  3 A             R4    renato_acid    renato_ac_R4  0.000127         2
##  4 A             R0    renato_peptide renato_pep_R0 0.0000937        6
##  5 A             R4    renato_peptide renato_pep_R4 0.0000413        3
##  6 AAAAAGGGNWFDP R0    renato_acid    renato_ac_R0  0.0000156        1
##  7 AAAAAGGGNWFDP R0    renato_peptide renato_pep_R0 0.0000156        1
##  8 AAAAGHFDY     R0    renato_acid    renato_ac_R0  0.0000312        2
##  9 AAAAGHFDY     R0    renato_peptide renato_pep_R0 0.0000312        2
## 10 AAAAGQFDY     R0    renato_acid    renato_ac_R0  0.0000156        1
## # … with 75,449 more rows
```
…
b %>% 
      group_by(cdr3, expgroup) %>% 
      filter(n()>1) %>% 
      group_by(cycle, .add=T) %>% 
      summarise(n = n(), s = sum(fcp), q = sum(quantity), c = sum(cdrp)) %>% print()
```

```
## # A tibble: 2,430 x 7
## # Groups:   cdr3, expgroup [1,215]
##    cdr3       expgroup       cycle     n     s     q         c
##    <chr>      <chr>          <chr> <int> <dbl> <int>     <dbl>
##  1 A          renato_acid    R0        1 1         6 0.0000937
##  2 A          renato_acid    R4        1 1.35      2 0.000127 
##  3 A          renato_peptide R0        1 1         6 0.0000937
##  4 A          renato_peptide R4        1 0.441     3 0.0000413
##  5 AAGGRPFDY  renato_peptide R0        1 1         1 0.0000156
##  6 AAGGRPFDY  renato_peptide R4        1 0.882     1 0.0000138
##  7 AARQPDY    renato_acid    R0        1 1         5 0.0000781
##  8 AARQPDY    renato_acid    R4        1 0.812     1 0.0000634
##  9 ADGYNNEVDY renato_acid    R0        1 1        13 0.000203 
## 10 ADGYNNEVDY renato_acid    R4        1 0.312     1 0.0000634
## # … with 2,420 more rows
```
…
