…
```r
cdr %>% 
  filter(rich == "rich") %>% 
  filter(expgroup == "66" & cycle == "R0_R4") %>% 
  ungroup() %>% 
  select(cdr3:SSF_Sheet & !c("cycle", "time", "expgroup")) -> rich66

rich66
```

```
## # A tibble: 363 x 14
##    cdr3     cdrp quantity   fcp   fcq length    MW     AV    IP  flex   gravy
##    <chr>   <dbl>    <int> <dbl> <dbl>  <int> <dbl>  <dbl> <dbl> <dbl>   <dbl>
##  1 SQDV… 0.0138      2794  860.  1397     13 1440. 0.0769  4.05 0.733  0.0769
##  2 TAGV… 0.00433      876  539.   876      8  886. 0.25    4.05 0.718 -0.075 
##  3 GRPE… 0.00294      595  366.   595     10 1128. 0.1     5.32 0.764 -1.06  
##  4 GDLV… 0.00240      486  299.   486     13 1588. 0.308   4.21 0.732 -0.477 
##  5 ARPK… 0.00233      471  290.   471     14 1461. 0.0714  6.00 0.794 -1.26  
##  6 GRWI… 0.00206      417  257.   417      8  992. 0.25    8.75 0.711 -0.338 
##  7 DLDW… 0.00175      355  218.   355      9 1199. 0.333   4.05 0.705  0.244 
##  8 SGAV… 0.00173      351  216.   351     13 1414. 0.154   4.37 0.721  0.331 
##  9 TRKQ… 0.00163      330  203.   330      8  957. 0      11.0  0.801 -1.84  
## 10 DGRY… 0.00153      310  191.   310      8 1063. 0.375   4.21 0.741 -1.9   
## # … with 353 more rows, and 3 more variables: SSF_Helix <dbl>, SSF_Turn <dbl>,
## #   SSF_Sheet <dbl>
```
…
