…
```r
cdr %>% 
  filter(rich == "rich") %>% 
  ungroup() %>% 
  select(cdr3:SSF_Sheet & !c("cycle", "time", "expgroup")) -> rich66

rich66
```

```
## # A tibble: 109 x 14
##    cdr3     cdrp quantity   fcp   fcq length    MW    AV    IP  flex   gravy
##    <chr>   <dbl>    <int> <dbl> <dbl>  <int> <dbl> <dbl> <dbl> <dbl>   <dbl>
##  1 GGVN… 0.0112       620  252.  310       8  889. 0.125  4.05 0.780 -1.44  
##  2 APAG… 0.00456      252  205.  252       9 1025. 0.222  4.37 0.760 -0.933 
##  3 PLTG… 0.00420      232  189.  232       7  800. 0.143  7.17 0.717  0.0571
##  4 VQES… 0.00371      205  167.  205      10 1133. 0.1    4.05 0.760 -0.09  
##  5 DPGH… 0.00351      194  158.  194       8  875. 0.125  4.05 0.807 -2.17  
##  6 DREV… 0.00337      186  151.  186      15 1834. 0.133  4.72 0.762 -1.24  
##  7 DIRW… 0.00322      178  145.  178      14 1747. 0.214  4.54 0.751 -0.993 
##  8 ETWG… 0.00610      337  137.  168.      7  881. 0.286  4.05 0.774 -1.7   
##  9 EDGY… 0.00280      155  126.  155      10 1173. 0.4    4.05 0.735 -1.42  
## 10 DLHW… 0.00277      153  124.  153       9 1065. 0.111  5.05 0.752 -0.833 
## # … with 99 more rows, and 3 more variables: SSF_Helix <dbl>, SSF_Turn <dbl>,
## #   SSF_Sheet <dbl>
```
…
